.................
----------------------------------------------------------------------
Ran 17 tests in 1.499s

OK
Name             Stmts   Miss Branch BrPart  Cover   Missing
------------------------------------------------------------
Collatz.py          54      0     26      0   100%
TestCollatz.py      76      0      0      0   100%
------------------------------------------------------------
TOTAL              130      0     26      0   100%
