10 10 7
10 1 20
555010 32990 470
10119 960846 525
220924 519704 470
599424 388631 470
788415 984091 525
580948 116310 470
32973 794481 509
203126 931932 525
624110 185390 470
456449 185444 449
398597 121007 443
706097 829969 468
54978 264462 443
88350 483474 449
303078 97583 443
73493 876299 525
674146 609926 509
807698 606411 509
607717 508775 470
856370 626083 525
269655 641883 509
613966 906143 525
21386 598201 470
961520 73530 525
957971 593937 525
265461 318301 407
604753 313787 470
771195 179105 509
332146 722062 509
812438 147823 509
779929 192081 509
404262 978094 525
388459 722006 509
33922 1345 308
289967 658989 509
188423 243868 443
687938 838104 525
847997 217522 525
860540 424946 525
508292 585628 470
475961 264331 449
293026 900406 525
596196 944276 525
220745 99203 386
452157 486780 444
823635 74318 509
497113 961992 525
584915 801616 509
934304 763476 525
359346 133089 443
816078 626593 504
264467 98615 443
804199 494114 509
156530 555474 470
160220 370400 443
781372 925020 525
744626 796741 468
415687 378932 449
222076 68946 386
841550 627731 525
650388 171293 509
468327 280833 449
272570 477479 449
74887 226221 386
699881 309064 509
905357 446739 525
261341 389947 441
663990 819385 504
755526 857990 525
163548 784519 509
672937 801387 504
180771 362882 443
496230 788310 509
101085 377281 443
920021 430335 525
466671 431133 444
532022 811365 509
393465 5929 443
706517 133464 509
868841 676015 525
341624 623487 470
621285 898529 525
868614 81818 525
149976 839622 525
873272 448706 525
603369 42510 470
645099 412876 509
437040 148639 449
364981 342836 441
374296 779440 509
180469 605163 470
919558 329799 525
540858 368607 470
28475 59956 340
165644 198071 365
656167 60863 509
368990 579968 470
224359 209607 386
435059 911660 525
47580 615068 470
910171 667695 525
233833 788059 509
252777 859883 525
553934 722378 509
166998 846220 525
790407 471735 509
523255 7841 470
704097 370533 509
918536 658336 525
417633 238460 449
819571 763905 468
610697 396183 470
118521 240556 443
690036 678056 398
583702 356709 470
542399 294202 470
451321 444541 387
92838 641402 509
604349 696270 509
918337 415899 525
270110 668159 509
42190 599705 470
696116 650836 442
315315 329311 384
211289 736841 509
306761 207688 443
909560 458997 525
405618 907151 525
75931 42490 340
647750 305810 509
775624 34281 509
208366 170656 373
786435 269316 509
242654 193480 443
495403 454865 444
121204 676351 509
40191 372673 443
469098 577917 470
600252 538292 452
666253 268756 509
57919 104370 351
574368 285648 470
940292 117491 525
642804 438064 509
588137 548092 434
942112 824192 525
310234 295628 371
947000 847257 507
99669 395616 443
780904 582725 509
876580 121573 525
