..........
----------------------------------------------------------------------
Ran 10 tests in 0.037s

OK
Name             Stmts   Miss Branch BrPart  Cover   Missing
------------------------------------------------------------
Collatz.py          27      3     10      1    89%   30->31, 31-33
TestCollatz.py      56      0      0      0   100%
------------------------------------------------------------
TOTAL               83      3     10      1    96%
