1 10 20
100 200 125
201 210 89
900 1000 174
999999 899999 507
1 1 1
2 2 2
10 10 7
9 1 20
1198 200 182
999999 999999 259
999997 999997 114
999997 999999 259
239057 279268 407
356399 386515 423
907357 911713 476
67174 30378 340
234250 216501 443
111833 121990 349
196884 213276 373
118170 114826 349
994459 954929 458
123298 129271 331
322041 350745 441
99077 68275 351
818412 823549 450
251132 260480 363
111122 115457 323
397202 393231 405
427472 427427 250
826823 826822 176
242062 206127 443
528512 553129 452
839796 809063 525
696294 732223 504
586373 548160 434
625050 669289 509
166431 185585 365
476292 447897 444
958009 934618 507
367200 369080 317
598739 623137 447
270911 243059 407
89259 121442 354
527091 525542 408
842682 883564 432
544368 580899 452
312796 303528 384
679519 694050 442
180570 200182 360
201164 209856 373
174008 221150 386
951300 906003 507
721639 748480 424
344697 319889 384
678943 698184 442
557766 511860 470
592197 569998 434
749698 781381 468
778527 795057 437
177833 187288 365
493123 488298 426
820722 867078 525
666591 667748 367
103438 118904 354
48276 30541 324
729657 762610 424
290126 242690 407
602613 593983 403
357492 363481 410
735160 763192 424
771174 724065 468
82749 55241 351
856669 845287 419
804526 806001 375
802058 794929 468
805373 815834 406
576263 533976 452
641788 678512 442
743514 764212 424
722980 745691 424
946775 963834 414
242002 219055 443
334400 325237 353
655397 609438 509
709676 734985 411
189751 210719 373
667023 679885 385
46281 30239 324
844783 854553 419
948514 983578 458
137938 143049 375
266569 265258 332
824686 800629 450
187378 216772 386
700636 741517 504
202200 194379 360
300115 265178 407
536646 569045 452
227309 191742 386
397287 421348 449
685061 638275 442
487612 515119 470
287307 256823 407
779816 739230 468
628402 625569 509
84274 107510 354
798384 796827 375
375431 363979 392
660157 671670 442
615323 586189 447
596635 546870 434
188918 141337 383
1 999999 525
40 806789 509
949000 999999 458
1 50001 324
1 50000 324
200000 250000 443
950000 999999 458
100000 900000 525
